PracticalFour
…
Warning: package 'nycflights13' was built under R version 4.3.3

Question One

##View data to see structure
class(flights)

[1] "tbl_df"     "tbl"        "data.frame"

flights

# A tibble: 336,776 × 19
    year month   day dep_time sched_dep_time dep_delay arr_time sched_arr_time
   <int> <int> <int>    <int>          <int>     <dbl>    <int>          <int>
 1  2013     1     1      517            515         2      830            819
 2  2013     1     1      533            529         4      850            830
 3  2013     1     1      542            540         2      923            850
 4  2013     1     1      544            545        -1     1004           1022
 5  2013     1     1      554            600        -6      812            837
 6  2013     1     1      554            558        -4      740            728
 7  2013     1     1      555            600        -5      913            854
 8  2013     1     1      557            600        -3      709            723
 9  2013     1     1      557            600        -3      838            846
10  2013     1     1      558            600        -2      753            745
# ℹ 336,766 more rows
# ℹ 11 more variables: arr_delay <dbl>, carrier <chr>, flight <int>,
#   tailnum <chr>, origin <chr>, dest <chr>, air_time <dbl>, distance <dbl>,
#   hour <dbl>, minute <dbl>, time_hour <dttm>
…
#Find airline for worst and best avg arr delay
rank <- avg_arr_delays |> 
  group_by(origin, dest) |> 
  filter(
    avg_arr_delay == min(avg_arr_delay)| #'|' means get both the best and the worst from that route
    avg_arr_delay == max(avg_arr_delay)
  ) |> 
  mutate(status = case_when(
    avg_arr_delay == min(avg_arr_delay) ~ "Best",
    avg_arr_delay == max(avg_arr_delay) ~ "Worst"
  ))

rank  

# A tibble: 254 × 5
# Groups:   origin, dest [127]
   origin dest  name                     avg_arr_delay status
   <chr>  <chr> <chr>                            <dbl> <chr> 
 1 EWR    ATL   Endeavor Air Inc.                -6.25 Best  
 2 EWR    ATL   ExpressJet Airlines Inc.         19.5  Worst 
 3 EWR    AUS   Southwest Airlines Co.          -11.2  Best  
 4 EWR    AUS   United Air Lines Inc.             4.28 Worst 
 5 EWR    BDL   ExpressJet Airlines Inc.          6.78 Best  
 6 EWR    BDL   United Air Lines Inc.            22.6  Worst 
 7 EWR    BNA   ExpressJet Airlines Inc.         17.7  Worst 
 8 EWR    BNA   Southwest Airlines Co.           -2.13 Best  
 9 EWR    BOS   ExpressJet Airlines Inc.         -4.01 Best  
10 EWR    BOS   JetBlue Airways                   6.87 Worst 
# ℹ 244 more rows
…
`summarise()` has grouped output by 'origin'. You can override using the
`.groups` argument.

diff

# A tibble: 127 × 7
# Groups:   origin [3]
   origin dest  max_delay min_delay difference worst_airline        best_airline
   <chr>  <chr>     <dbl>     <dbl>      <dbl> <chr>                <chr>       
 1 JFK    ATL       128        1.40      127.  ExpressJet Airlines… Endeavor Ai…
 2 LGA    XNA       119        6.96      112.  ExpressJet Airlines… Envoy Air   
 3 LGA    ORD       107       -1.31      108.  SkyWest Airlines In… American Ai…
 4 LGA    MSY        72.5    -29         102.  ExpressJet Airlines… Endeavor Ai…
 5 EWR    STL       110       13.6        96.4 United Air Lines In… Southwest A…
 6 LGA    MSP       100        4.33       95.7 Endeavor Air Inc.    Delta Air L…
 7 EWR    DTW        68.5      1          67.5 SkyWest Airlines In… United Air …
 8 LGA    ATL        63        6.33       56.7 ExpressJet Airlines… Delta Air L…
 9 LGA    PBI        40.7    -12.6        53.3 ExpressJet Airlines… American Ai…
10 LGA    IND        20.7    -26.5        47.2 ExpressJet Airlines… Delta Air L…
# ℹ 117 more rows
…
